Fig3/SMTTInput.vcd
$date
	Wed Apr 09 23:52:34 2025
$end
$version
	Icarus Verilog
$end
$timescale
	100ps
$end
$scope module SMControlTest $end
$var wire 1 ! done $end
$var wire 4 " s [3:0] $end
$var wire 1 # rsshr $end
$var wire 1 $ rsload $end
$var wire 1 % rsclear $end
$var wire 4 & n [3:0] $end
$var wire 1 ' mrld $end
$var wire 1 ( mdld $end
$var wire 1 ) continue $end
$var parameter 32 * NUM_BITS $end
$var reg 1 + clk $end
$var reg 8 , errors [7:0] $end
$var reg 4 - mr [3:0] $end
$var reg 4 . reset_state [3:0] $end
$var reg 1 / rst $end
$var reg 1 0 start $end
$var reg 16 1 to_visit [15:0] $end
$var reg 16 2 visited [15:0] $end
$var integer 32 3 multiplier [31:0] $end
$var integer 32 4 rs [31:0] $end
$var integer 32 5 st [31:0] $end
$var integer 32 6 stop_loop [31:0] $end
$scope module control $end
$var wire 1 + clk $end
$var wire 1 ! done $end
$var wire 1 ( mdld $end
$var wire 4 7 mr [3:0] $end
$var wire 1 ' mrld $end
$var wire 4 8 reset_state [3:0] $end
$var wire 1 % rsclear $end
$var wire 1 $ rsload $end
$var wire 1 # rsshr $end
$var wire 1 / rst $end
$var wire 1 0 start $end
$var wire 4 9 n [3:0] $end
$var reg 4 : s [3:0] $end
$upscope $end
$upscope $end
$enddefinitions $end
$comment Show the parameter values. $end
$dumpall
b100 *
$end
#0
$dumpvars
bx :
bx 9
b0 8
b0 7
b0 6
bx 5
b0 4
bx 3
b0 2
b1 1
00
0/
b0 .
b0 -
b0 ,
0+
1)
x(
x'
bx &
x%
0$
x#
bx "
z!
$end
#20
b0 5
b0 3
#70
1/
#90
0#
b0 &
b0 9
0%
0(
0'
b0 "
b0 :
1+
#100
0+
#120
0/
#140
1+
#150
0+
#160
b1 5
#190
b1 &
b1 9
10
#210
1/
#230
1+
#240
0+
#260
0/
#280
b10 &
b10 9
1%
1(
1'
b1 "
b1 :
1+
#290
0+
#300
b1 3
b0 5
b11 1
#310
b1 -
b1 7
#330
00
#350
1/
#370
b0 &
b0 9
0%
0(
0'
b0 "
b0 :
1+
#380
0+
#400
0/
#420
1+
#430
0+
#440
b1 5
#470
b1 &
b1 9
10
#490
1/
#510
1+
#520
0+
#540
0/
#560
b10 &
b10 9
1%
1(
1'
b1 "
b1 :
1+
#570
0+
#580
b10 3
b0 5
#590
b10 -
b10 7
#610
00
#630
1/
#650
b0 &
b0 9
0%
0(
0'
b0 "
b0 :
1+
#660
0+
#680
0/
#700
1+
#710
0+
#720
b1 5
#750
b1 &
b1 9
10
#770
1/
#790
1+
#800
0+
#820
0/
#840
b10 &
b10 9
1%
1(
1'
b1 "
b1 :
1+
#850
0+
#860
b11 3
b0 5
#870
b11 -
b11 7
#890
00
#910
1/
#930
b0 &
b0 9
0%
0(
0'
b0 "
b0 :
1+
#940
0+
#960
0/
#980
1+
#990
0+
#1000
b1 5
#1030
b1 &
b1 9
10
#1050
1/
#1070
1+
#1080
0+
#1100
0/
#1120
b10 &
b10 9
1%
1(
1'
b1 "
b1 :
1+
#1130
0+
#1140
b100 3
b0 5
#1150
b100 -
b100 7
#1170
00
#1190
1/
#1210
b0 &
b0 9
0%
0(
0'
b0 "
b0 :
1+
#1220
0+
#1240
0/
#1260
1+
#1270
0+
#1280
b1 5
#1310
b1 &
b1 9
10
#1330
1/
#1350
1+
#1360
0+
#1380
0/
#1400
b10 &
b10 9
1%
1(
1'
b1 "
b1 :
1+
#1410
0+
#1420
b101 3
b0 5
#1430
b101 -
b101 7
#1450
00
#1470
1/
#1490
b0 &
b0 9
0%
0(
0'
b0 "
b0 :
1+
#1500
0+
#1520
0/
#1540
1+
#1550
0+
#1560
b1 5
#1590
b1 &
b1 9
10
#1610
1/
#1630
1+
#1640
0+
#1660
0/
#1680
b10 &
b10 9
1%
1(
1'
b1 "
b1 :
1+
#1690
0+
#1700
b110 3
b0 5
#1710
b110 -
b110 7
#1730
00
#1750
1/
#1770
b0 &
b0 9
0%
0(
0'
b0 "
b0 :
1+
#1780
0+
#1800
0/
#1820
1+
#1830
0+
#1840
b1 5
#1870
b1 &
b1 9
10
#1890
1/
#1910
1+
#1920
0+
#1940
0/
#1960
b10 &
b10 9
1%
1(
1'
b1 "
b1 :
1+
#1970
0+
#1980
b111 3
b0 5
#1990
b111 -
b111 7
#2010
00
#2030
1/
#2050
b0 &
b0 9
0%
0(
0'
b0 "
b0 :
1+
#2060
0+
#2080
0/
#2100
1+
#2110
0+
#2120
b1 5
#2150
b1 &
b1 9
10
#2170
1/
#2190
1+
#2200
0+
#2220
0/
#2240
b10 &
b10 9
1%
1(
1'
b1 "
b1 :
1+
#2250
0+
#2260
b1000 3
b0 5
#2270
b1000 -
b1000 7
#2290
00
#2310
1/
#2330
b0 &
b0 9
0%
0(
0'
b0 "
b0 :
1+
#2340
0+
#2360
0/
#2380
1+
#2390
0+
#2400
b1 5
#2430
b1 &
b1 9
10
#2450
1/
#2470
1+
#2480
0+
#2500
0/
#2520
b10 &
b10 9
1%
1(
1'
b1 "
b1 :
1+
#2530
0+
#2540
b1001 3
b0 5
#2550
b1001 -
b1001 7
#2570
00
#2590
1/
#2610
b0 &
b0 9
0%
0(
0'
b0 "
b0 :
1+
#2620
0+
#2640
0/
#2660
1+
#2670
0+
#2680
b1 5
#2710
b1 &
b1 9
10
#2730
1/
#2750
1+
#2760
0+
#2780
0/
#2800
b10 &
b10 9
1%
1(
1'
b1 "
b1 :
1+
#2810
0+
#2820
b1010 3
b0 5
#2830
b1010 -
b1010 7
#2850
00
#2870
1/
#2890
b0 &
b0 9
0%
0(
0'
b0 "
b0 :
1+
#2900
0+
#2920
0/
#2940
1+
#2950
0+
#2960
b1 5
#2990
b1 &
b1 9
10
#3010
1/
#3030
1+
#3040
0+
#3060
0/
#3080
b10 &
b10 9
1%
1(
1'
b1 "
b1 :
1+
#3090
0+
#3100
b1011 3
b0 5
#3110
b1011 -
b1011 7
#3130
00
#3150
1/
#3170
b0 &
b0 9
0%
0(
0'
b0 "
b0 :
1+
#3180
0+
#3200
0/
#3220
1+
#3230
0+
#3240
b1 5
#3270
b1 &
b1 9
10
#3290
1/
#3310
1+
#3320
0+
#3340
0/
#3360
b10 &
b10 9
1%
1(
1'
b1 "
b1 :
1+
#3370
0+
#3380
b1100 3
b0 5
#3390
b1100 -
b1100 7
#3410
00
#3430
1/
#3450
b0 &
b0 9
0%
0(
0'
b0 "
b0 :
1+
#3460
0+
#3480
0/
#3500
1+
#3510
0+
#3520
b1 5
#3550
b1 &
b1 9
10
#3570
1/
#3590
1+
#3600
0+
#3620
0/
#3640
b10 &
b10 9
1%
1(
1'
b1 "
b1 :
1+
#3650
0+
#3660
b1101 3
b0 5
#3670
b1101 -
b1101 7
#3690
00
#3710
1/
#3730
b0 &
b0 9
0%
0(
0'
b0 "
b0 :
1+
#3740
0+
#3760
0/
#3780
1+
#3790
0+
#3800
b1 5
#3830
b1 &
b1 9
10
#3850
1/
#3870
1+
#3880
0+
#3900
0/
#3920
b10 &
b10 9
1%
1(
1'
b1 "
b1 :
1+
#3930
0+
#3940
b1110 3
b0 5
#3950
b1110 -
b1110 7
#3970
00
#3990
1/
#4010
b0 &
b0 9
0%
0(
0'
b0 "
b0 :
1+
#4020
0+
#4040
0/
#4060
1+
#4070
0+
#4080
b1 5
#4110
b1 &
b1 9
10
#4130
1/
#4150
1+
#4160
0+
#4180
0/
#4200
b10 &
b10 9
1%
1(
1'
b1 "
b1 :
1+
#4210
0+
#4220
b1111 3
b0 5
#4230
b1111 -
b1111 7
#4250
00
#4270
1/
#4290
b0 &
b0 9
0%
0(
0'
b0 "
b0 :
1+
#4300
0+
#4320
0/
#4340
1+
#4350
0+
#4360
b1 5
#4390
b1 &
b1 9
10
#4410
1/
#4430
1+
#4440
0+
#4460
0/
#4480
b10 &
b10 9
1%
1(
1'
b1 "
b1 :
1+
#4490
0+
#4500
b1 4
b1 2
b10000 3
b10 5
#4510
b1 .
b1 8
#4520
b0 5
b0 3
#4530
b0 -
b0 7
#4550
00
#4570
1/
#4590
1+
#4600
0+
#4620
0/
#4640
b111 &
b111 9
0%
0(
0'
b10 "
b10 :
1+
#4650
0+
#4660
b1 5
b111 1
#4690
10
#4710
1/
#4730
0#
1%
1(
1'
b10 &
b10 9
b1 "
b1 :
1+
#4740
0+
#4760
0/
#4780
b111 &
b111 9
0%
0(
0'
b10 "
b10 :
1+
#4790
0+
#4800
b1 3
b0 5
#4810
b1 -
b1 7
#4830
00
#4850
1/
#4870
0#
1%
1(
1'
b10 &
b10 9
b1 "
b1 :
1+
#4880
0+
#4900
0/
#4920
b111 &
b111 9
0%
0(
0'
b10 "
b10 :
1+
#4930
0+
#4940
b1 5
#4970
10
#4990
1/
#5010
0#
1%
1(
1'
b10 &
b10 9
b1 "
b1 :
1+
#5020
0+
#5040
0/
#5060
b111 &
b111 9
0%
0(
0'
b10 "
b10 :
1+
#5070
0+
#5080
b10 3
b0 5
#5090
b10 -
b10 7
#5110
00
#5130
1/
#5150
0#
1%
1(
1'
b10 &
b10 9
b1 "
b1 :
1+
#5160
0+
#5180
0/
#5200
b111 &
b111 9
0%
0(
0'
b10 "
b10 :
1+
#5210
0+
#5220
b1 5
#5250
10
#5270
1/
#5290
0#
1%
1(
1'
b10 &
b10 9
b1 "
b1 :
1+
#5300
0+
#5320
0/
#5340
b111 &
b111 9
0%
0(
0'
b10 "
b10 :
1+
#5350
0+
#5360
b11 3
b0 5
#5370
b11 -
b11 7
#5390
00
#5410
1/
#5430
0#
1%
1(
1'
b10 &
b10 9
b1 "
b1 :
1+
#5440
0+
#5460
0/
#5480
b111 &
b111 9
0%
0(
0'
b10 "
b10 :
1+
#5490
0+
#5500
b1 5
#5530
10
#5550
1/
#5570
0#
1%
1(
1'
b10 &
b10 9
b1 "
b1 :
1+
#5580
0+
#5600
0/
#5620
b111 &
b111 9
0%
0(
0'
b10 "
b10 :
1+
#5630
0+
#5640
b100 3
b0 5
#5650
b100 -
b100 7
#5670
00
#5690
1/
#5710
0#
1%
1(
1'
b10 &
b10 9
b1 "
b1 :
1+
#5720
0+
#5740
0/
#5760
b111 &
b111 9
0%
0(
0'
b10 "
b10 :
1+
#5770
0+
#5780
b1 5
#5810
10
#5830
1/
#5850
0#
1%
1(
1'
b10 &
b10 9
b1 "
b1 :
1+
#5860
0+
#5880
0/
#5900
b111 &
b111 9
0%
0(
0'
b10 "
b10 :
1+
#5910
0+
#5920
b101 3
b0 5
#5930
b101 -
b101 7
#5950
00
#5970
1/
#5990
0#
1%
1(
1'
b10 &
b10 9
b1 "
b1 :
1+
#6000
0+
#6020
0/
#6040
b111 &
b111 9
0%
0(
0'
b10 "
b10 :
1+
#6050
0+
#6060
b1 5
#6090
10
#6110
1/
#6130
0#
1%
1(
1'
b10 &
b10 9
b1 "
b1 :
1+
#6140
0+
#6160
0/
#6180
b111 &
b111 9
0%
0(
0'
b10 "
b10 :
1+
#6190
0+
#6200
b110 3
b0 5
#6210
b110 -
b110 7
#6230
00
#6250
1/
#6270
0#
1%
1(
1'
b10 &
b10 9
b1 "
b1 :
1+
#6280
0+
#6300
0/
#6320
b111 &
b111 9
0%
0(
0'
b10 "
b10 :
1+
#6330
0+
#6340
b1 5
#6370
10
#6390
1/
#6410
0#
1%
1(
1'
b10 &
b10 9
b1 "
b1 :
1+
#6420
0+
#6440
0/
#6460
b111 &
b111 9
0%
0(
0'
b10 "
b10 :
1+
#6470
0+
#6480
b111 3
b0 5
#6490
b111 -
b111 7
#6510
00
#6530
1/
#6550
0#
1%
1(
1'
b10 &
b10 9
b1 "
b1 :
1+
#6560
0+
#6580
0/
#6600
b111 &
b111 9
0%
0(
0'
b10 "
b10 :
1+
#6610
0+
#6620
b1 5
#6650
10
#6670
1/
#6690
0#
1%
1(
1'
b10 &
b10 9
b1 "
b1 :
1+
#6700
0+
#6720
0/
#6740
b111 &
b111 9
0%
0(
0'
b10 "
b10 :
1+
#6750
0+
#6760
b1000 3
b0 5
#6770
b1000 -
b1000 7
#6790
00
#6810
1/
#6830
0#
1%
1(
1'
b10 &
b10 9
b1 "
b1 :
1+
#6840
0+
#6860
0/
#6880
b111 &
b111 9
0%
0(
0'
b10 "
b10 :
1+
#6890
0+
#6900
b1 5
#6930
10
#6950
1/
#6970
0#
1%
1(
1'
b10 &
b10 9
b1 "
b1 :
1+
#6980
0+
#7000
0/
#7020
b111 &
b111 9
0%
0(
0'
b10 "
b10 :
1+
#7030
0+
#7040
b1001 3
b0 5
#7050
b1001 -
b1001 7
#7070
00
#7090
1/
#7110
0#
1%
1(
1'
b10 &
b10 9
b1 "
b1 :
1+
#7120
0+
#7140
0/
#7160
b111 &
b111 9
0%
0(
0'
b10 "
b10 :
1+
#7170
0+
#7180
b1 5
#7210
10
#7230
1/
#7250
0#
1%
1(
1'
b10 &
b10 9
b1 "
b1 :
1+
#7260
0+
#7280
0/
#7300
b111 &
b111 9
0%
0(
0'
b10 "
b10 :
1+
#7310
0+
#7320
b1010 3
b0 5
#7330
b1010 -
b1010 7
#7350
00
#7370
1/
#7390
0#
1%
1(
1'
b10 &
b10 9
b1 "
b1 :
1+
#7400
0+
#7420
0/
#7440
b111 &
b111 9
0%
0(
0'
b10 "
b10 :
1+
#7450
0+
#7460
b1 5
#7490
10
#7510
1/
#7530
0#
1%
1(
1'
b10 &
b10 9
b1 "
b1 :
1+
#7540
0+
#7560
0/
#7580
b111 &
b111 9
0%
0(
0'
b10 "
b10 :
1+
#7590
0+
#7600
b1011 3
b0 5
#7610
b1011 -
b1011 7
#7630
00
#7650
1/
#7670
0#
1%
1(
1'
b10 &
b10 9
b1 "
b1 :
1+
#7680
0+
#7700
0/
#7720
b111 &
b111 9
0%
0(
0'
b10 "
b10 :
1+
#7730
0+
#7740
b1 5
#7770
10
#7790
1/
#7810
0#
1%
1(
1'
b10 &
b10 9
b1 "
b1 :
1+
#7820
0+
#7840
0/
#7860
b111 &
b111 9
0%
0(
0'
b10 "
b10 :
1+
#7870
0+
#7880
b1100 3
b0 5
#7890
b1100 -
b1100 7
#7910
00
#7930
1/
#7950
0#
1%
1(
1'
b10 &
b10 9
b1 "
b1 :
1+
#7960
0+
#7980
0/
#8000
b111 &
b111 9
0%
0(
0'
b10 "
b10 :
1+
#8010
0+
#8020
b1 5
#8050
10
#8070
1/
#8090
0#
1%
1(
1'
b10 &
b10 9
b1 "
b1 :
1+
#8100
0+
#8120
0/
#8140
b111 &
b111 9
0%
0(
0'
b10 "
b10 :
1+
#8150
0+
#8160
b1101 3
b0 5
#8170
b1101 -
b1101 7
#8190
00
#8210
1/
#8230
0#
1%
1(
1'
b10 &
b10 9
b1 "
b1 :
1+
#8240
0+
#8260
0/
#8280
b111 &
b111 9
0%
0(
0'
b10 "
b10 :
1+
#8290
0+
#8300
b1 5
#8330
10
#8350
1/
#8370
0#
1%
1(
1'
b10 &
b10 9
b1 "
b1 :
1+
#8380
0+
#8400
0/
#8420
b111 &
b111 9
0%
0(
0'
b10 "
b10 :
1+
#8430
0+
#8440
b1110 3
b0 5
#8450
b1110 -
b1110 7
#8470
00
#8490
1/
#8510
0#
1%
1(
1'
b10 &
b10 9
b1 "
b1 :
1+
#8520
0+
#8540
0/
#8560
b111 &
b111 9
0%
0(
0'
b10 "
b10 :
1+
#8570
0+
#8580
b1 5
#8610
10
#8630
1/
#8650
0#
1%
1(
1'
b10 &
b10 9
b1 "
b1 :
1+
#8660
0+
#8680
0/
#8700
b111 &
b111 9
0%
0(
0'
b10 "
b10 :
1+
#8710
0+
#8720
b1111 3
b0 5
#8730
b1111 -
b1111 7
#8750
00
#8770
1/
#8790
0#
1%
1(
1'
b10 &
b10 9
b1 "
b1 :
1+
#8800
0+
#8820
0/
#8840
b111 &
b111 9
0%
0(
0'
b10 "
b10 :
1+
#8850
0+
#8860
b1 5
#8890
10
#8910
1/
#8930
0#
1%
1(
1'
b10 &
b10 9
b1 "
b1 :
1+
#8940
0+
#8960
0/
#8980
b111 &
b111 9
0%
0(
0'
b10 "
b10 :
1+
#8990
0+
#9000
b10 4
b11 2
b10000 3
b10 5
#9010
b10 .
b10 8
#9020
b0 5
b0 3
#9030
b0 -
b0 7
#9050
00
#9070
1/
#9090
1+
#9100
0+
#9120
0/
#9140
0#
b11 &
b11 9
b111 "
b111 :
1+
#9150
0+
#9160
b1 5
b10000111 1
#9190
10
#9210
1/
#9230
b111 &
b111 9
0#
b10 "
b10 :
1+
#9240
0+
#9260
0/
#9280
0#
b11 &
b11 9
b111 "
b111 :
1+
#9290
0+
#9300
b1 3
b0 5
#9310
1$
b1 -
b1 7
#9330
00
#9350
1/
#9370
0$
b111 &
b111 9
0#
b10 "
b10 :
1+
#9380
0+
#9400
0/
#9420
1$
0#
b11 &
b11 9
b111 "
b111 :
1+
#9430
0+
#9440
b1 5
#9470
10
#9490
1/
#9510
0$
b111 &
b111 9
0#
b10 "
b10 :
1+
#9520
0+
#9540
0/
#9560
1$
0#
b11 &
b11 9
b111 "
b111 :
1+
#9570
0+
#9580
b10 3
b0 5
#9590
0$
b10 -
b10 7
#9610
00
#9630
1/
#9650
b111 &
b111 9
0#
b10 "
b10 :
1+
#9660
0+
#9680
0/
#9700
0#
b11 &
b11 9
b111 "
b111 :
1+
#9710
0+
#9720
b1 5
#9750
10
#9770
1/
#9790
b111 &
b111 9
0#
b10 "
b10 :
1+
#9800
0+
#9820
0/
#9840
0#
b11 &
b11 9
b111 "
b111 :
1+
#9850
0+
#9860
b11 3
b0 5
#9870
1$
b11 -
b11 7
#9890
00
#9910
1/
#9930
0$
b111 &
b111 9
0#
b10 "
b10 :
1+
#9940
0+
#9960
0/
#9980
1$
0#
b11 &
b11 9
b111 "
b111 :
1+
#9990
0+
#10000
b1 5
#10030
10
#10050
1/
#10070
0$
b111 &
b111 9
0#
b10 "
b10 :
1+
#10080
0+
#10100
0/
#10120
1$
0#
b11 &
b11 9
b111 "
b111 :
1+
#10130
0+
#10140
b100 3
b0 5
#10150
0$
b100 -
b100 7
#10170
00
#10190
1/
#10210
b111 &
b111 9
0#
b10 "
b10 :
1+
#10220
0+
#10240
0/
#10260
0#
b11 &
b11 9
b111 "
b111 :
1+
#10270
0+
#10280
b1 5
#10310
10
#10330
1/
#10350
b111 &
b111 9
0#
b10 "
b10 :
1+
#10360
0+
#10380
0/
#10400
0#
b11 &
b11 9
b111 "
b111 :
1+
#10410
0+
#10420
b101 3
b0 5
#10430
1$
b101 -
b101 7
#10450
00
#10470
1/
#10490
0$
b111 &
b111 9
0#
b10 "
b10 :
1+
#10500
0+
#10520
0/
#10540
1$
0#
b11 &
b11 9
b111 "
b111 :
1+
#10550
0+
#10560
b1 5
#10590
10
#10610
1/
#10630
0$
b111 &
b111 9
0#
b10 "
b10 :
1+
#10640
0+
#10660
0/
#10680
1$
0#
b11 &
b11 9
b111 "
b111 :
1+
#10690
0+
#10700
b110 3
b0 5
#10710
0$
b110 -
b110 7
#10730
00
#10750
1/
#10770
b111 &
b111 9
0#
b10 "
b10 :
1+
#10780
0+
#10800
0/
#10820
0#
b11 &
b11 9
b111 "
b111 :
1+
#10830
0+
#10840
b1 5
#10870
10
#10890
1/
#10910
b111 &
b111 9
0#
b10 "
b10 :
1+
#10920
0+
#10940
0/
#10960
0#
b11 &
b11 9
b111 "
b111 :
1+
#10970
0+
#10980
b111 3
b0 5
#10990
1$
b111 -
b111 7
#11010
00
#11030
1/
#11050
0$
b111 &
b111 9
0#
b10 "
b10 :
1+
#11060
0+
#11080
0/
#11100
1$
0#
b11 &
b11 9
b111 "
b111 :
1+
#11110
0+
#11120
b1 5
#11150
10
#11170
1/
#11190
0$
b111 &
b111 9
0#
b10 "
b10 :
1+
#11200
0+
#11220
0/
#11240
1$
0#
b11 &
b11 9
b111 "
b111 :
1+
#11250
0+
#11260
b1000 3
b0 5
#11270
0$
b1000 -
b1000 7
#11290
00
#11310
1/
#11330
b111 &
b111 9
0#
b10 "
b10 :
1+
#11340
0+
#11360
0/
#11380
0#
b11 &
b11 9
b111 "
b111 :
1+
#11390
0+
#11400
b1 5
#11430
10
#11450
1/
#11470
b111 &
b111 9
0#
b10 "
b10 :
1+
#11480
0+
#11500
0/
#11520
0#
b11 &
b11 9
b111 "
b111 :
1+
#11530
0+
#11540
b1001 3
b0 5
#11550
1$
b1001 -
b1001 7
#11570
00
#11590
1/
#11610
0$
b111 &
b111 9
0#
b10 "
b10 :
1+
#11620
0+
#11640
0/
#11660
1$
0#
b11 &
b11 9
b111 "
b111 :
1+
#11670
0+
#11680
b1 5
#11710
10
#11730
1/
#11750
0$
b111 &
b111 9
0#
b10 "
b10 :
1+
#11760
0+
#11780
0/
#11800
1$
0#
b11 &
b11 9
b111 "
b111 :
1+
#11810
0+
#11820
b1010 3
b0 5
#11830
0$
b1010 -
b1010 7
#11850
00
#11870
1/
#11890
b111 &
b111 9
0#
b10 "
b10 :
1+
#11900
0+
#11920
0/
#11940
0#
b11 &
b11 9
b111 "
b111 :
1+
#11950
0+
#11960
b1 5
#11990
10
#12010
1/
#12030
b111 &
b111 9
0#
b10 "
b10 :
1+
#12040
0+
#12060
0/
#12080
0#
b11 &
b11 9
b111 "
b111 :
1+
#12090
0+
#12100
b1011 3
b0 5
#12110
1$
b1011 -
b1011 7
#12130
00
#12150
1/
#12170
0$
b111 &
b111 9
0#
b10 "
b10 :
1+
#12180
0+
#12200
0/
#12220
1$
0#
b11 &
b11 9
b111 "
b111 :
1+
#12230
0+
#12240
b1 5
#12270
10
#12290
1/
#12310
0$
b111 &
b111 9
0#
b10 "
b10 :
1+
#12320
0+
#12340
0/
#12360
1$
0#
b11 &
b11 9
b111 "
b111 :
1+
#12370
0+
#12380
b1100 3
b0 5
#12390
0$
b1100 -
b1100 7
#12410
00
#12430
1/
#12450
b111 &
b111 9
0#
b10 "
b10 :
1+
#12460
0+
#12480
0/
#12500
0#
b11 &
b11 9
b111 "
b111 :
1+
#12510
0+
#12520
b1 5
#12550
10
#12570
1/
#12590
b111 &
b111 9
0#
b10 "
b10 :
1+
#12600
0+
#12620
0/
#12640
0#
b11 &
b11 9
b111 "
b111 :
1+
#12650
0+
#12660
b1101 3
b0 5
#12670
1$
b1101 -
b1101 7
#12690
00
#12710
1/
#12730
0$
b111 &
b111 9
0#
b10 "
b10 :
1+
#12740
0+
#12760
0/
#12780
1$
0#
b11 &
b11 9
b111 "
b111 :
1+
#12790
0+
#12800
b1 5
#12830
10
#12850
1/
#12870
0$
b111 &
b111 9
0#
b10 "
b10 :
1+
#12880
0+
#12900
0/
#12920
1$
0#
b11 &
b11 9
b111 "
b111 :
1+
#12930
0+
#12940
b1110 3
b0 5
#12950
0$
b1110 -
b1110 7
#12970
00
#12990
1/
#13010
b111 &
b111 9
0#
b10 "
b10 :
1+
#13020
0+
#13040
0/
#13060
0#
b11 &
b11 9
b111 "
b111 :
1+
#13070
0+
#13080
b1 5
#13110
10
#13130
1/
#13150
b111 &
b111 9
0#
b10 "
b10 :
1+
#13160
0+
#13180
0/
#13200
0#
b11 &
b11 9
b111 "
b111 :
1+
#13210
0+
#13220
b1111 3
b0 5
#13230
1$
b1111 -
b1111 7
#13250
00
#13270
1/
#13290
0$
b111 &
b111 9
0#
b10 "
b10 :
1+
#13300
0+
#13320
0/
#13340
1$
0#
b11 &
b11 9
b111 "
b111 :
1+
#13350
0+
#13360
b1 5
#13390
10
#13410
1/
#13430
0$
b111 &
b111 9
0#
b10 "
b10 :
1+
#13440
0+
#13460
0/
#13480
1$
0#
b11 &
b11 9
b111 "
b111 :
1+
#13490
0+
#13500
b111 4
b111 2
b10000 3
b10 5
#13510
b111 .
b111 8
#13520
b0 5
b0 3
#13530
0$
b0 -
b0 7
#13550
00
#13570
1/
#13590
1+
#13600
0+
#13620
0/
#13640
1#
b1000 &
b1000 9
b11 "
b11 :
1+
#13650
0+
#13660
b1 5
b10001111 1
#13690
10
#13710
1/
#13730
0#
b11 &
b11 9
b111 "
b111 :
1+
#13740
0+
#13760
0/
#13780
1#
b1000 &
b1000 9
b11 "
b11 :
1+
#13790
0+
#13800
b1 3
b0 5
#13810
b1 -
b1 7
#13830
00
#13850
1/
#13870
1$
0#
b11 &
b11 9
b111 "
b111 :
1+
#13880
0+
#13900
0/
#13920
0$
1#
b1000 &
b1000 9
b11 "
b11 :
1+
#13930
0+
#13940
b1 5
#13970
10
#13990
1/
#14010
1$
0#
b11 &
b11 9
b111 "
b111 :
1+
#14020
0+
#14040
0/
#14060
0$
1#
b1000 &
b1000 9
b11 "
b11 :
1+
#14070
0+
#14080
b10 3
b0 5
#14090
b10 -
b10 7
#14110
00
#14130
1/
#14150
0#
b11 &
b11 9
b111 "
b111 :
1+
#14160
0+
#14180
0/
#14200
1#
b1000 &
b1000 9
b11 "
b11 :
1+
#14210
0+
#14220
b1 5
#14250
10
#14270
1/
#14290
0#
b11 &
b11 9
b111 "
b111 :
1+
#14300
0+
#14320
0/
#14340
1#
b1000 &
b1000 9
b11 "
b11 :
1+
#14350
0+
#14360
b11 3
b0 5
#14370
b11 -
b11 7
#14390
00
#14410
1/
#14430
1$
0#
b11 &
b11 9
b111 "
b111 :
1+
#14440
0+
#14460
0/
#14480
0$
1#
b1000 &
b1000 9
b11 "
b11 :
1+
#14490
0+
#14500
b1 5
#14530
10
#14550
1/
#14570
1$
0#
b11 &
b11 9
b111 "
b111 :
1+
#14580
0+
#14600
0/
#14620
0$
1#
b1000 &
b1000 9
b11 "
b11 :
1+
#14630
0+
#14640
b100 3
b0 5
#14650
b100 -
b100 7
#14670
00
#14690
1/
#14710
0#
b11 &
b11 9
b111 "
b111 :
1+
#14720
0+
#14740
0/
#14760
1#
b1000 &
b1000 9
b11 "
b11 :
1+
#14770
0+
#14780
b1 5
#14810
10
#14830
1/
#14850
0#
b11 &
b11 9
b111 "
b111 :
1+
#14860
0+
#14880
0/
#14900
1#
b1000 &
b1000 9
b11 "
b11 :
1+
#14910
0+
#14920
b101 3
b0 5
#14930
b101 -
b101 7
#14950
00
#14970
1/
#14990
1$
0#
b11 &
b11 9
b111 "
b111 :
1+
#15000
0+
#15020
0/
#15040
0$
1#
b1000 &
b1000 9
b11 "
b11 :
1+
#15050
0+
#15060
b1 5
#15090
10
#15110
1/
#15130
1$
0#
b11 &
b11 9
b111 "
b111 :
1+
#15140
0+
#15160
0/
#15180
0$
1#
b1000 &
b1000 9
b11 "
b11 :
1+
#15190
0+
#15200
b110 3
b0 5
#15210
b110 -
b110 7
#15230
00
#15250
1/
#15270
0#
b11 &
b11 9
b111 "
b111 :
1+
#15280
0+
#15300
0/
#15320
1#
b1000 &
b1000 9
b11 "
b11 :
1+
#15330
0+
#15340
b1 5
#15370
10
#15390
1/
#15410
0#
b11 &
b11 9
b111 "
b111 :
1+
#15420
0+
#15440
0/
#15460
1#
b1000 &
b1000 9
b11 "
b11 :
1+
#15470
0+
#15480
b111 3
b0 5
#15490
b111 -
b111 7
#15510
00
#15530
1/
#15550
1$
0#
b11 &
b11 9
b111 "
b111 :
1+
#15560
0+
#15580
0/
#15600
0$
1#
b1000 &
b1000 9
b11 "
b11 :
1+
#15610
0+
#15620
b1 5
#15650
10
#15670
1/
#15690
1$
0#
b11 &
b11 9
b111 "
b111 :
1+
#15700
0+
#15720
0/
#15740
0$
1#
b1000 &
b1000 9
b11 "
b11 :
1+
#15750
0+
#15760
b1000 3
b0 5
#15770
b1000 -
b1000 7
#15790
00
#15810
1/
#15830
0#
b11 &
b11 9
b111 "
b111 :
1+
#15840
0+
#15860
0/
#15880
1#
b1000 &
b1000 9
b11 "
b11 :
1+
#15890
0+
#15900
b1 5
#15930
10
#15950
1/
#15970
0#
b11 &
b11 9
b111 "
b111 :
1+
#15980
0+
#16000
0/
#16020
1#
b1000 &
b1000 9
b11 "
b11 :
1+
#16030
0+
#16040
b1001 3
b0 5
#16050
b1001 -
b1001 7
#16070
00
#16090
1/
#16110
1$
0#
b11 &
b11 9
b111 "
b111 :
1+
#16120
0+
#16140
0/
#16160
0$
1#
b1000 &
b1000 9
b11 "
b11 :
1+
#16170
0+
#16180
b1 5
#16210
10
#16230
1/
#16250
1$
0#
b11 &
b11 9
b111 "
b111 :
1+
#16260
0+
#16280
0/
#16300
0$
1#
b1000 &
b1000 9
b11 "
b11 :
1+
#16310
0+
#16320
b1010 3
b0 5
#16330
b1010 -
b1010 7
#16350
00
#16370
1/
#16390
0#
b11 &
b11 9
b111 "
b111 :
1+
#16400
0+
#16420
0/
#16440
1#
b1000 &
b1000 9
b11 "
b11 :
1+
#16450
0+
#16460
b1 5
#16490
10
#16510
1/
#16530
0#
b11 &
b11 9
b111 "
b111 :
1+
#16540
0+
#16560
0/
#16580
1#
b1000 &
b1000 9
b11 "
b11 :
1+
#16590
0+
#16600
b1011 3
b0 5
#16610
b1011 -
b1011 7
#16630
00
#16650
1/
#16670
1$
0#
b11 &
b11 9
b111 "
b111 :
1+
#16680
0+
#16700
0/
#16720
0$
1#
b1000 &
b1000 9
b11 "
b11 :
1+
#16730
0+
#16740
b1 5
#16770
10
#16790
1/
#16810
1$
0#
b11 &
b11 9
b111 "
b111 :
1+
#16820
0+
#16840
0/
#16860
0$
1#
b1000 &
b1000 9
b11 "
b11 :
1+
#16870
0+
#16880
b1100 3
b0 5
#16890
b1100 -
b1100 7
#16910
00
#16930
1/
#16950
0#
b11 &
b11 9
b111 "
b111 :
1+
#16960
0+
#16980
0/
#17000
1#
b1000 &
b1000 9
b11 "
b11 :
1+
#17010
0+
#17020
b1 5
#17050
10
#17070
1/
#17090
0#
b11 &
b11 9
b111 "
b111 :
1+
#17100
0+
#17120
0/
#17140
1#
b1000 &
b1000 9
b11 "
b11 :
1+
#17150
0+
